{
    "index": {
        "download_fdroid": "הורדת F-Droid",
        "introduction": "F-Droid הוא קטלוג בר התקנה של יישומוני תכנה חופשית (FOSS) לפלטפורמת Android. הלקוח מקל על העיון, ההתקנה ושמירה על עדכונים להתקן שלך.",
        "gpg_signature": "חתימת PGP",
        "screenshot": "צילום מסך של יישומון F-Droid ל־Android",
        "title": "מה זה F-Droid?"
    },
    "navigation": {
        "about": "על אודות",
        "documentation": "מסמכים",
        "forum": "פורום",
        "browse": "עיון",
        "contribute": "תרומה",
        "repomaker": "מייצר מאגרים",
        "tutorials": "מדריכים",
        "news": "חדשות",
        "issues": "בעיות"
    },
    "package": {
        "website": "אתר",
        "permissions": "הרשאות",
        "donate": "תרומה",
        "liberapay": "Liberapay",
        "technical_info": "פירוט טכני",
        "build_metadata": "נתונים על הבנייה",
        "author": "יוצר",
        "new_in_version": "חדש בגרסה [latest_version]",
        "version_info": "<b>גרסה [package_version]</b> ([package_version_code]) - נוספה ב־[package_added_date]",
        "changelog": "יומן שינויים",
        "issue_tracker": "עוקב תקלות",
        "signed_by_developer": "היא נבנתה ונחתמה על ידי המפתח המקורי.",
        "gpg_signature": "חתימת PGP",
        "signed_by_fdroid": "היא נבנתה ונחתמה על ידי F-Droid, לצד ההבטחה שהיא תישאר נאמנה ל<a href=\"[source_code_url]\">קובץ איסוף המקור הזה</a>.",
        "packages": "חבילות",
        "download": "הורדת [file_extension]",
        "license": "רשיון",
        "minimum_android_version": "גרסה זו דורשת Android בגרסה [android_version] ומעלה.",
        "suggest_downloading_via_fdroid": "למרות שניתן להוריד קובצי APK להלן כדי להעניק לך בחירה, ראוי לזכור שהתקנה בדרך זו לא תבטיח התרעות על עדכונים והיא פחות מאובטחת מבחינת הורדה. אנו ממליצים להתקין דרך לקוח ה־F-Droid ולהשתמש בו.",
        "source_code": "קוד מקור",
        "flattr": "Flattr"
    },
    "sidebars": {
        "latest_packages": {
            "heading": "יישומונים עדכניים"
        },
        "news": {
            "heading": "חדשות"
        },
        "search": {
            "noscript": "נדרשת הפעלה של JavaScript",
            "search": "חיפוש",
            "heading": "חיפוש יישומונים"
        },
        "donate": {
            "bank_transfer_name": "שם",
            "bitcoin_alt": "תרומת ביטקוין",
            "powered_by_donations": "F-Droid נתמכת על ידי התרומות שלך!",
            "via_bank_transfer": "העברה בנקאית",
            "litecoin_alt": "תרומת Litecoin",
            "flattr_alt": "תרומה דרך Flattr",
            "paypal_alt": "תרומה דרך PayPal",
            "liberapay_alt": "תרומה דרך Liberapay",
            "heading": "תרומה"
        },
        "last_updated": {
            "heading": "עדכון אחרון"
        }
    }
}
