{
    "index": {
        "download_fdroid": "Iscàrriga F-Droid",
        "introduction": "F-Droid est unu catàlogu installàbile de aplicatziones a mitza lìbera (Open Source Software) pro sos sistemas operativos Android. S'aplicatzione permitit de esplorare, installare, e gestire sos agiornamentos pro su dispositivu bostru in manera fàtzile.",
        "gpg_signature": "Firma PGP",
        "screenshot": "Ischermadas de s'aplicatzione de F-Droid pro Android",
        "title": "Ite est F-Droid?"
    },
    "navigation": {
        "about": "A pitzu de",
        "contribute": "Agiuda",
        "forum": "Forum",
        "browse": "Esplora",
        "documentation": "Documentos",
        "repomaker": "Repomaker",
        "tutorials": "Ghias",
        "news": "Noas",
        "issues": "Problemas"
    },
    "package": {
        "website": "Situ web",
        "permissions": "Permissos",
        "donate": "Dona",
        "liberapay": "Liberapay",
        "technical_info": "Informatziones tècnicas",
        "build_metadata": "Metadatos de costrutzione",
        "author": "Autore",
        "new_in_version": "Nou in sa versione [latest_version]",
        "version_info": "<b>Versione [package_version]</b> ([package_version_code]) - Annanta su [package_added_date]",
        "changelog": "Cronologia de sas modìficas",
        "issue_tracker": "Sinnaladore de problemas",
        "signed_by_developer": "Est compilada e firmada dae s'isvilupadore originale.",
        "gpg_signature": "Firma PGP",
        "signed_by_fdroid": "Est compilada e firmada dae F-Droid, garantende sa currispondèntzia a <a href=\"[source_code_url]\">custa mitza tar</a>.",
        "packages": "Pachetes",
        "download": "Iscàrriga [file_extension]",
        "license": "Litzèntzia",
        "minimum_android_version": "Custa versione tenet bisòngiu de Android  [android_version]  o prus nou.",
        "suggest_downloading_via_fdroid": "Fintzas si sos iscarrigamentos de APK sunt disponìbiles inoghe in giosso pro ti lassare n'issèbera, depes ischire chi installende·los in cussa manera no as a retzire notìficas pro sos agiornamentos disponìbiles e chi est una manera prus pagu segura  de iscarrigare. Ti cunsigiamus de installare s'aplicatzione de F-Droid e de impreare cussa.",
        "source_code": "Còdighe mitza",
        "flattr": "Flattr"
    },
    "sidebars": {
        "latest_packages": {
            "heading": "Aplicatziones prus noas"
        },
        "news": {
            "heading": "Noas"
        },
        "search": {
            "noscript": "Pro èssere abilitadu tenet bisòngiu de JavaScript",
            "search": "Chirca",
            "heading": "Agata aplicatziones"
        },
        "donate": {
            "bank_transfer_name": "Nùmene",
            "bitcoin_alt": "Dona impreende Bitcoin",
            "powered_by_donations": "F-Droid est suportadu dae sas donatziones bostras!",
            "via_bank_transfer": "Bonìficu bancàriu",
            "litecoin_alt": "Dona impreende Litecoin",
            "flattr_alt": "Dona impreende Flattr",
            "paypal_alt": "Dona impreende Paypal",
            "liberapay_alt": "Dona impreende Liberapay",
            "heading": "Faghe una donatzione"
        },
        "last_updated": {
            "heading": "Ùrtimu agiornamentu"
        }
    }
}
